{
    "version": "3.0",
    "account_id": 1,
    "host_id": "your-company.checkfront.com",
    "name": "Your Company",
    "locale": {
        "id": "en_US",
        "lang": "en",
        "currency": "CAD"
    },
    "request": {
        "path": [
            "booking",
            "index"
        ],
        "id": "index",
        "resource": "booking",
        "records": 100,
        "total_records": 11985,
        "status": "OK",
        "limit": 100,
        "page": 1,
        "pages": 120,
        "time": 0.0501,
        "method": "get"
    },
    "booking/index": {
        "2": {
            "booking_id": 2,
            "code": "CFPP-290317",
            "status_id": "PEND",
            "status_name": "Pending",
            "created_date": 1490854462,
            "total": "80.40",
            "tax_total": "13.40",
            "paid_total": "0.00",
            "customer_id": 3,
            "customer_name": "Bridgette Hammes",
            "customer_email": "bridgette@example.com",
            "summary": "Walking Tour with a Taste of London, The London Experience Hat, The London Experience Mini-Bus",
            "date_desc": "Sun Dec 24, 2017",
            "tid": "",
            "token": "b93eb6589f3ac8bdfca07f26dbe1a73ff6354620a51d8609a54a6697e686567f"
        }
    }
}
